tlc_out.vcd
$date
	Thu Aug 18 16:38:45 2022
$end
$version
	Icarus Verilog
$end
$timescale
	1ps
$end
$scope module iiitb_tlc_tb $end
$var wire 3 ! light_highway [2:0] $end
$var wire 3 " light_farm [2:0] $end
$var reg 1 # clk $end
$var reg 1 $ rst_n $end
$var reg 1 % sensor $end
$scope module test $end
$var wire 1 % C $end
$var wire 1 # clk $end
$var wire 1 $ rst_n $end
$var wire 2 & state [1:0] $end
$var wire 2 ' next_state [1:0] $end
$var wire 3 ( light_highway [2:0] $end
$var wire 3 ) light_farm [2:0] $end
$scope module _0_ $end
$var wire 1 * A $end
$var wire 1 + VGND $end
$var wire 1 , VNB $end
$var wire 1 - VPB $end
$var wire 1 . VPWR $end
$var wire 1 / Y $end
$scope module base $end
$var wire 1 * A $end
$var wire 1 / Y $end
$var wire 1 0 not0_out_Y $end
$upscope $end
$upscope $end
$scope module _1_ $end
$var wire 1 1 A $end
$var wire 1 2 B_N $end
$var wire 1 3 VGND $end
$var wire 1 4 VNB $end
$var wire 1 5 VPB $end
$var wire 1 6 VPWR $end
$var wire 1 7 Y $end
$scope module base $end
$var wire 1 1 A $end
$var wire 1 2 B_N $end
$var wire 1 7 Y $end
$var wire 1 8 and0_out_Y $end
$var wire 1 9 not0_out $end
$upscope $end
$upscope $end
$scope module _2_ $end
$var wire 1 : A $end
$var wire 1 ; B $end
$var wire 1 < VGND $end
$var wire 1 = VNB $end
$var wire 1 > VPB $end
$var wire 1 ? VPWR $end
$var wire 1 @ Y $end
$scope module base $end
$var wire 1 : A $end
$var wire 1 ; B $end
$var wire 1 @ Y $end
$var wire 1 A nor0_out_Y $end
$upscope $end
$upscope $end
$scope module _3_ $end
$var wire 1 B A1 $end
$var wire 1 % A2 $end
$var wire 1 C B1_N $end
$var wire 1 D VGND $end
$var wire 1 E VNB $end
$var wire 1 F VPB $end
$var wire 1 G VPWR $end
$var wire 1 H X $end
$scope module base $end
$var wire 1 B A1 $end
$var wire 1 % A2 $end
$var wire 1 C B1_N $end
$var wire 1 H X $end
$var wire 1 I nor0_out $end
$var wire 1 J nor1_out_X $end
$upscope $end
$upscope $end
$scope module _4_ $end
$var wire 1 K A $end
$var wire 1 L B_N $end
$var wire 1 M VGND $end
$var wire 1 N VNB $end
$var wire 1 O VPB $end
$var wire 1 P VPWR $end
$var wire 1 Q Y $end
$scope module base $end
$var wire 1 K A $end
$var wire 1 L B_N $end
$var wire 1 Q Y $end
$var wire 1 R and0_out_Y $end
$var wire 1 S not0_out $end
$upscope $end
$upscope $end
$scope module _5_ $end
$var wire 1 T A $end
$var wire 1 U B $end
$var wire 1 V VGND $end
$var wire 1 W VNB $end
$var wire 1 X VPB $end
$var wire 1 Y VPWR $end
$var wire 1 Z X $end
$scope module base $end
$var wire 1 T A $end
$var wire 1 U B $end
$var wire 1 Z X $end
$var wire 1 [ xor0_out_X $end
$upscope $end
$upscope $end
$scope module _6_ $end
$var wire 1 \ A $end
$var wire 1 ] B $end
$var wire 1 ^ VGND $end
$var wire 1 _ VNB $end
$var wire 1 ` VPB $end
$var wire 1 a VPWR $end
$var wire 1 b X $end
$scope module base $end
$var wire 1 \ A $end
$var wire 1 ] B $end
$var wire 1 b X $end
$var wire 1 c and0_out_X $end
$upscope $end
$upscope $end
$scope module _7_ $end
$var wire 1 d A $end
$var wire 1 e VGND $end
$var wire 1 f VNB $end
$var wire 1 g VPB $end
$var wire 1 h VPWR $end
$var wire 1 i X $end
$scope module base $end
$var wire 1 d A $end
$var wire 1 i X $end
$var wire 1 j buf0_out_X $end
$upscope $end
$upscope $end
$scope module _8_ $end
$var wire 1 # CLK $end
$var wire 1 k D $end
$var wire 1 $ RESET_B $end
$var wire 1 l VGND $end
$var wire 1 m VNB $end
$var wire 1 n VPB $end
$var wire 1 o VPWR $end
$var wire 1 p Q $end
$scope module base $end
$var wire 1 # CLK $end
$var wire 1 k D $end
$var wire 1 p Q $end
$var wire 1 q RESET $end
$var wire 1 $ RESET_B $end
$var wire 1 r buf_Q $end
$upscope $end
$upscope $end
$scope module _9_ $end
$var wire 1 # CLK $end
$var wire 1 s D $end
$var wire 1 $ RESET_B $end
$var wire 1 t VGND $end
$var wire 1 u VNB $end
$var wire 1 v VPB $end
$var wire 1 w VPWR $end
$var wire 1 x Q $end
$scope module base $end
$var wire 1 # CLK $end
$var wire 1 s D $end
$var wire 1 x Q $end
$var wire 1 y RESET $end
$var wire 1 $ RESET_B $end
$var wire 1 z buf_Q $end
$upscope $end
$upscope $end
$upscope $end
$upscope $end
$enddefinitions $end
#0
$dumpvars
0z
1y
0x
1w
1v
0u
0t
0s
0r
1q
0p
1o
1n
0m
0l
0k
0j
0i
1h
1g
0f
0e
0d
0c
0b
1a
1`
0_
0^
0]
0\
0[
0Z
1Y
1X
0W
0V
0U
0T
1S
0R
0Q
1P
1O
0N
0M
0L
0K
0J
1I
0H
1G
1F
0E
0D
0C
0B
1A
1@
1?
1>
0=
0<
0;
0:
19
08
07
16
15
04
03
02
01
10
1/
1.
1-
0,
0+
0*
b100 )
b1 (
b0 '
b0 &
0%
0$
0#
b100 "
b1 !
$end
#1000
1#
#2000
0#
#3000
1#
#4000
0#
#5000
1#
#6000
0#
#7000
1#
#8000
0#
#9000
1#
#10000
0#
#11000
1#
#12000
0#
#13000
1#
#14000
0#
#15000
1#
#16000
0#
#17000
1#
#18000
0#
#19000
1#
#20000
0#
#21000
1#
#22000
0#
#23000
1#
#24000
0#
#25000
1#
#26000
0#
#27000
1#
#28000
0#
#29000
1#
#30000
0#
#31000
1#
#32000
0#
#33000
1#
#34000
0#
#35000
1#
#36000
0#
#37000
1#
#38000
0#
#39000
1#
#40000
0#
#41000
1#
#42000
0#
#43000
1#
#44000
0#
#45000
1#
#46000
0#
#47000
1#
#48000
0#
#49000
1#
#50000
0#
#51000
1#
#52000
0#
#53000
1#
#54000
0#
#55000
1#
#56000
0#
#57000
1#
#58000
0#
#59000
1#
#60000
1k
b1 '
1H
1J
0I
0#
1%
#61000
1#
#62000
0#
#63000
1#
#64000
0#
#65000
1#
#66000
0#
#67000
1#
#68000
0#
#69000
1#
#70000
0#
#71000
1#
#72000
0#
#73000
1#
#74000
0#
#75000
1#
#76000
0#
#77000
1#
#78000
0#
#79000
1#
#80000
0#
#81000
1#
#82000
0#
#83000
1#
#84000
0#
#85000
1#
#86000
0#
#87000
1#
#88000
0#
#89000
1#
#90000
0#
#91000
1#
#92000
0#
#93000
1#
#94000
0#
#95000
1#
#96000
0#
#97000
1#
#98000
0#
#99000
1#
#100000
0#
#101000
1#
#102000
0#
#103000
1#
#104000
0#
#105000
1#
#106000
0#
#107000
1#
#108000
0#
#109000
1#
#110000
0#
#111000
1#
#112000
0#
#113000
1#
#114000
0#
#115000
1#
#116000
0#
#117000
1#
#118000
0#
#119000
1#
#120000
0#
#121000
1#
#122000
0#
#123000
1#
#124000
0#
#125000
1#
#126000
0#
#127000
1#
#128000
0#
#129000
1#
#130000
0#
#131000
1#
#132000
0#
#133000
1#
#134000
0#
#135000
1#
#136000
0#
#137000
1#
#138000
0#
#139000
1#
#140000
0#
#141000
1#
#142000
0#
#143000
1#
#144000
0#
#145000
1#
#146000
0#
#147000
1#
#148000
0#
#149000
1#
#150000
0#
#151000
1#
#152000
0#
#153000
1#
#154000
0#
#155000
1#
#156000
0#
#157000
1#
#158000
0#
#159000
1#
#160000
0#
#161000
1#
#162000
0#
#163000
1#
#164000
0#
#165000
1#
#166000
0#
#167000
1#
#168000
0#
#169000
1#
#170000
0#
#171000
1#
#172000
0#
#173000
1#
#174000
0#
#175000
1#
#176000
0#
#177000
1#
#178000
0#
#179000
1#
#180000
0#
#181000
1#
#182000
0#
#183000
1#
#184000
0#
#185000
1#
#186000
0#
#187000
1#
#188000
0#
#189000
1#
#190000
0#
#191000
1#
#192000
0#
#193000
1#
#194000
0#
#195000
1#
#196000
0#
#197000
1#
#198000
0#
#199000
1#
#200000
0q
0y
0#
1$
#201000
1s
0k
1Z
1Q
b10 '
0H
b10 !
b10 (
0@
1[
1R
0J
0A
09
1]
1U
1L
1C
1;
11
b1 &
1p
1r
1#
#202000
0#
#203000
1k
17
0Q
b11 '
1H
18
b100 !
b100 (
1i
b1 "
b1 )
0/
0R
1J
19
1j
0S
00
0]
0U
0L
0C
0;
01
1d
1\
1T
1K
1B
1:
12
1*
0p
b10 &
1x
0r
1z
1#
#204000
0#
#205000
0s
0k
07
b10 "
b10 )
1b
0Z
b0 '
0H
08
1c
0[
0J
09
1]
1U
1L
1C
1;
11
b11 &
1p
1r
1#
#206000
0#
#207000
1k
b1 '
1H
0i
0b
b1 !
b1 (
1@
b100 "
b100 )
1/
1J
19
0j
0c
1S
1A
10
0]
0U
0L
0C
0;
01
0d
0\
0T
0K
0B
0:
02
0*
0p
b0 &
0x
0r
0z
1#
#208000
0#
#209000
1s
0k
1Z
1Q
b10 '
0H
b10 !
b10 (
0@
1[
1R
0J
0A
09
1]
1U
1L
1C
1;
11
b1 &
1p
1r
1#
#210000
0#
#211000
1k
17
0Q
b11 '
1H
18
b100 !
b100 (
1i
b1 "
b1 )
0/
0R
1J
19
1j
0S
00
0]
0U
0L
0C
0;
01
1d
1\
1T
1K
1B
1:
12
1*
0p
b10 &
1x
0r
1z
1#
#212000
0#
#213000
0s
0k
07
b10 "
b10 )
1b
0Z
b0 '
0H
08
1c
0[
0J
09
1]
1U
1L
1C
1;
11
b11 &
1p
1r
1#
#214000
0#
#215000
1k
b1 '
1H
0i
0b
b1 !
b1 (
1@
b100 "
b100 )
1/
1J
19
0j
0c
1S
1A
10
0]
0U
0L
0C
0;
01
0d
0\
0T
0K
0B
0:
02
0*
0p
b0 &
0x
0r
0z
1#
#216000
0#
#217000
1s
0k
1Z
1Q
b10 '
0H
b10 !
b10 (
0@
1[
1R
0J
0A
09
1]
1U
1L
1C
1;
11
b1 &
1p
1r
1#
#218000
0#
#219000
1k
17
0Q
b11 '
1H
18
b100 !
b100 (
1i
b1 "
b1 )
0/
0R
1J
19
1j
0S
00
0]
0U
0L
0C
0;
01
1d
1\
1T
1K
1B
1:
12
1*
0p
b10 &
1x
0r
1z
1#
#220000
0#
#221000
0s
0k
07
b10 "
b10 )
1b
0Z
b0 '
0H
08
1c
0[
0J
09
1]
1U
1L
1C
1;
11
b11 &
1p
1r
1#
#222000
0#
#223000
1k
b1 '
1H
0i
0b
b1 !
b1 (
1@
b100 "
b100 )
1/
1J
19
0j
0c
1S
1A
10
0]
0U
0L
0C
0;
01
0d
0\
0T
0K
0B
0:
02
0*
0p
b0 &
0x
0r
0z
1#
#224000
0#
#225000
1s
0k
1Z
1Q
b10 '
0H
b10 !
b10 (
0@
1[
1R
0J
0A
09
1]
1U
1L
1C
1;
11
b1 &
1p
1r
1#
#226000
0#
#227000
1k
17
0Q
b11 '
1H
18
b100 !
b100 (
1i
b1 "
b1 )
0/
0R
1J
19
1j
0S
00
0]
0U
0L
0C
0;
01
1d
1\
1T
1K
1B
1:
12
1*
0p
b10 &
1x
0r
1z
1#
#228000
0#
#229000
0s
0k
07
b10 "
b10 )
1b
0Z
b0 '
0H
08
1c
0[
0J
09
1]
1U
1L
1C
1;
11
b11 &
1p
1r
1#
#230000
0#
#231000
1k
b1 '
1H
0i
0b
b1 !
b1 (
1@
b100 "
b100 )
1/
1J
19
0j
0c
1S
1A
10
0]
0U
0L
0C
0;
01
0d
0\
0T
0K
0B
0:
02
0*
0p
b0 &
0x
0r
0z
1#
#232000
0#
#233000
1s
0k
1Z
1Q
b10 '
0H
b10 !
b10 (
0@
1[
1R
0J
0A
09
1]
1U
1L
1C
1;
11
b1 &
1p
1r
1#
#234000
0#
#235000
1k
17
0Q
b11 '
1H
18
b100 !
b100 (
1i
b1 "
b1 )
0/
0R
1J
19
1j
0S
00
0]
0U
0L
0C
0;
01
1d
1\
1T
1K
1B
1:
12
1*
0p
b10 &
1x
0r
1z
1#
#236000
0#
#237000
0s
0k
07
b10 "
b10 )
1b
0Z
b0 '
0H
08
1c
0[
0J
09
1]
1U
1L
1C
1;
11
b11 &
1p
1r
1#
#238000
0#
#239000
1k
b1 '
1H
0i
0b
b1 !
b1 (
1@
b100 "
b100 )
1/
1J
19
0j
0c
1S
1A
10
0]
0U
0L
0C
0;
01
0d
0\
0T
0K
0B
0:
02
0*
0p
b0 &
0x
0r
0z
1#
#240000
0#
#241000
1s
0k
1Z
1Q
b10 '
0H
b10 !
b10 (
0@
1[
1R
0J
0A
09
1]
1U
1L
1C
1;
11
b1 &
1p
1r
1#
#242000
0#
#243000
1k
17
0Q
b11 '
1H
18
b100 !
b100 (
1i
b1 "
b1 )
0/
0R
1J
19
1j
0S
00
0]
0U
0L
0C
0;
01
1d
1\
1T
1K
1B
1:
12
1*
0p
b10 &
1x
0r
1z
1#
#244000
0#
#245000
0s
0k
07
b10 "
b10 )
1b
0Z
b0 '
0H
08
1c
0[
0J
09
1]
1U
1L
1C
1;
11
b11 &
1p
1r
1#
#246000
0#
#247000
1k
b1 '
1H
0i
0b
b1 !
b1 (
1@
b100 "
b100 )
1/
1J
19
0j
0c
1S
1A
10
0]
0U
0L
0C
0;
01
0d
0\
0T
0K
0B
0:
02
0*
0p
b0 &
0x
0r
0z
1#
#248000
0#
#249000
1s
0k
1Z
1Q
b10 '
0H
b10 !
b10 (
0@
1[
1R
0J
0A
09
1]
1U
1L
1C
1;
11
b1 &
1p
1r
1#
#250000
0#
#251000
1k
17
0Q
b11 '
1H
18
b100 !
b100 (
1i
b1 "
b1 )
0/
0R
1J
19
1j
0S
00
0]
0U
0L
0C
0;
01
1d
1\
1T
1K
1B
1:
12
1*
0p
b10 &
1x
0r
1z
1#
#252000
0#
#253000
0s
0k
07
b10 "
b10 )
1b
0Z
b0 '
0H
08
1c
0[
0J
09
1]
1U
1L
1C
1;
11
b11 &
1p
1r
1#
#254000
0#
#255000
1k
b1 '
1H
0i
0b
b1 !
b1 (
1@
b100 "
b100 )
1/
1J
19
0j
0c
1S
1A
10
0]
0U
0L
0C
0;
01
0d
0\
0T
0K
0B
0:
02
0*
0p
b0 &
0x
0r
0z
1#
#256000
0#
#257000
1s
0k
1Z
1Q
b10 '
0H
b10 !
b10 (
0@
1[
1R
0J
0A
09
1]
1U
1L
1C
1;
11
b1 &
1p
1r
1#
#258000
0#
#259000
1k
17
0Q
b11 '
1H
18
b100 !
b100 (
1i
b1 "
b1 )
0/
0R
1J
19
1j
0S
00
0]
0U
0L
0C
0;
01
1d
1\
1T
1K
1B
1:
12
1*
0p
b10 &
1x
0r
1z
1#
#260000
0#
#261000
0s
0k
07
b10 "
b10 )
1b
0Z
b0 '
0H
08
1c
0[
0J
09
1]
1U
1L
1C
1;
11
b11 &
1p
1r
1#
#262000
0#
#263000
1k
b1 '
1H
0i
0b
b1 !
b1 (
1@
b100 "
b100 )
1/
1J
19
0j
0c
1S
1A
10
0]
0U
0L
0C
0;
01
0d
0\
0T
0K
0B
0:
02
0*
0p
b0 &
0x
0r
0z
1#
#264000
0#
#265000
1s
0k
1Z
1Q
b10 '
0H
b10 !
b10 (
0@
1[
1R
0J
0A
09
1]
1U
1L
1C
1;
11
b1 &
1p
1r
1#
#266000
0#
#267000
1k
17
0Q
b11 '
1H
18
b100 !
b100 (
1i
b1 "
b1 )
0/
0R
1J
19
1j
0S
00
0]
0U
0L
0C
0;
01
1d
1\
1T
1K
1B
1:
12
1*
0p
b10 &
1x
0r
1z
1#
#268000
0#
#269000
0s
0k
07
b10 "
b10 )
1b
0Z
b0 '
0H
08
1c
0[
0J
09
1]
1U
1L
1C
1;
11
b11 &
1p
1r
1#
#270000
0#
#271000
1k
b1 '
1H
0i
0b
b1 !
b1 (
1@
b100 "
b100 )
1/
1J
19
0j
0c
1S
1A
10
0]
0U
0L
0C
0;
01
0d
0\
0T
0K
0B
0:
02
0*
0p
b0 &
0x
0r
0z
1#
#272000
0#
#273000
1s
0k
1Z
1Q
b10 '
0H
b10 !
b10 (
0@
1[
1R
0J
0A
09
1]
1U
1L
1C
1;
11
b1 &
1p
1r
1#
#274000
0#
#275000
1k
17
0Q
b11 '
1H
18
b100 !
b100 (
1i
b1 "
b1 )
0/
0R
1J
19
1j
0S
00
0]
0U
0L
0C
0;
01
1d
1\
1T
1K
1B
1:
12
1*
0p
b10 &
1x
0r
1z
1#
#276000
0#
#277000
0s
0k
07
b10 "
b10 )
1b
0Z
b0 '
0H
08
1c
0[
0J
09
1]
1U
1L
1C
1;
11
b11 &
1p
1r
1#
#278000
0#
#279000
1k
b1 '
1H
0i
0b
b1 !
b1 (
1@
b100 "
b100 )
1/
1J
19
0j
0c
1S
1A
10
0]
0U
0L
0C
0;
01
0d
0\
0T
0K
0B
0:
02
0*
0p
b0 &
0x
0r
0z
1#
#280000
0#
#281000
1s
0k
1Z
1Q
b10 '
0H
b10 !
b10 (
0@
1[
1R
0J
0A
09
1]
1U
1L
1C
1;
11
b1 &
1p
1r
1#
#282000
0#
#283000
1k
17
0Q
b11 '
1H
18
b100 !
b100 (
1i
b1 "
b1 )
0/
0R
1J
19
1j
0S
00
0]
0U
0L
0C
0;
01
1d
1\
1T
1K
1B
1:
12
1*
0p
b10 &
1x
0r
1z
1#
#284000
0#
#285000
0s
0k
07
b10 "
b10 )
1b
0Z
b0 '
0H
08
1c
0[
0J
09
1]
1U
1L
1C
1;
11
b11 &
1p
1r
1#
#286000
0#
#287000
1k
b1 '
1H
0i
0b
b1 !
b1 (
1@
b100 "
b100 )
1/
1J
19
0j
0c
1S
1A
10
0]
0U
0L
0C
0;
01
0d
0\
0T
0K
0B
0:
02
0*
0p
b0 &
0x
0r
0z
1#
#288000
0#
#289000
1s
0k
1Z
1Q
b10 '
0H
b10 !
b10 (
0@
1[
1R
0J
0A
09
1]
1U
1L
1C
1;
11
b1 &
1p
1r
1#
#290000
0#
#291000
1k
17
0Q
b11 '
1H
18
b100 !
b100 (
1i
b1 "
b1 )
0/
0R
1J
19
1j
0S
00
0]
0U
0L
0C
0;
01
1d
1\
1T
1K
1B
1:
12
1*
0p
b10 &
1x
0r
1z
1#
#292000
0#
#293000
0s
0k
07
b10 "
b10 )
1b
0Z
b0 '
0H
08
1c
0[
0J
09
1]
1U
1L
1C
1;
11
b11 &
1p
1r
1#
#294000
0#
#295000
1k
b1 '
1H
0i
0b
b1 !
b1 (
1@
b100 "
b100 )
1/
1J
19
0j
0c
1S
1A
10
0]
0U
0L
0C
0;
01
0d
0\
0T
0K
0B
0:
02
0*
0p
b0 &
0x
0r
0z
1#
#296000
0#
#297000
1s
0k
1Z
1Q
b10 '
0H
b10 !
b10 (
0@
1[
1R
0J
0A
09
1]
1U
1L
1C
1;
11
b1 &
1p
1r
1#
#298000
0#
#299000
1k
17
0Q
b11 '
1H
18
b100 !
b100 (
1i
b1 "
b1 )
0/
0R
1J
19
1j
0S
00
0]
0U
0L
0C
0;
01
1d
1\
1T
1K
1B
1:
12
1*
0p
b10 &
1x
0r
1z
1#
#300000
0#
#301000
0s
0k
07
b10 "
b10 )
1b
0Z
b0 '
0H
08
1c
0[
0J
09
1]
1U
1L
1C
1;
11
b11 &
1p
1r
1#
#302000
0#
#303000
1k
b1 '
1H
0i
0b
b1 !
b1 (
1@
b100 "
b100 )
1/
1J
19
0j
0c
1S
1A
10
0]
0U
0L
0C
0;
01
0d
0\
0T
0K
0B
0:
02
0*
0p
b0 &
0x
0r
0z
1#
#304000
0#
#305000
1s
0k
1Z
1Q
b10 '
0H
b10 !
b10 (
0@
1[
1R
0J
0A
09
1]
1U
1L
1C
1;
11
b1 &
1p
1r
1#
#306000
0#
#307000
1k
17
0Q
b11 '
1H
18
b100 !
b100 (
1i
b1 "
b1 )
0/
0R
1J
19
1j
0S
00
0]
0U
0L
0C
0;
01
1d
1\
1T
1K
1B
1:
12
1*
0p
b10 &
1x
0r
1z
1#
#308000
0#
#309000
0s
0k
07
b10 "
b10 )
1b
0Z
b0 '
0H
08
1c
0[
0J
09
1]
1U
1L
1C
1;
11
b11 &
1p
1r
1#
#310000
0#
#311000
1k
b1 '
1H
0i
0b
b1 !
b1 (
1@
b100 "
b100 )
1/
1J
19
0j
0c
1S
1A
10
0]
0U
0L
0C
0;
01
0d
0\
0T
0K
0B
0:
02
0*
0p
b0 &
0x
0r
0z
1#
#312000
0#
#313000
1s
0k
1Z
1Q
b10 '
0H
b10 !
b10 (
0@
1[
1R
0J
0A
09
1]
1U
1L
1C
1;
11
b1 &
1p
1r
1#
#314000
0#
#315000
1k
17
0Q
b11 '
1H
18
b100 !
b100 (
1i
b1 "
b1 )
0/
0R
1J
19
1j
0S
00
0]
0U
0L
0C
0;
01
1d
1\
1T
1K
1B
1:
12
1*
0p
b10 &
1x
0r
1z
1#
#316000
0#
#317000
0s
0k
07
b10 "
b10 )
1b
0Z
b0 '
0H
08
1c
0[
0J
09
1]
1U
1L
1C
1;
11
b11 &
1p
1r
1#
#318000
0#
#319000
1k
b1 '
1H
0i
0b
b1 !
b1 (
1@
b100 "
b100 )
1/
1J
19
0j
0c
1S
1A
10
0]
0U
0L
0C
0;
01
0d
0\
0T
0K
0B
0:
02
0*
0p
b0 &
0x
0r
0z
1#
#320000
0k
b0 '
0H
0J
1I
0#
0%
